2014-09-19 13:49:26 7fa18b811780 InnoDB: Warning: Using innodb_additional_mem_pool_size is DEPRECATED. This option may be removed in future releases, together with the option innodb_use_sys_malloc and with the InnoDB's internal memory allocator.
140919 13:49:26 [Note] InnoDB: Using mutexes to ref count buffer pool pages
140919 13:49:26 [Note] InnoDB: The InnoDB memory heap is disabled
140919 13:49:26 [Note] InnoDB: Mutexes and rw_locks use GCC atomic builtins
140919 13:49:26 [Note] InnoDB: Compressed tables use zlib 1.2.8
140919 13:49:26 [Note] InnoDB: Using Linux native AIO
140919 13:49:26 [Note] InnoDB: Using CPU crc32 instructions
140919 13:49:26 [Note] InnoDB: Initializing buffer pool, size = 80.0M
140919 13:49:26 [Note] InnoDB: Completed initialization of buffer pool
140919 13:49:26 [Note] InnoDB: Highest supported file format is Barracuda.
140919 13:49:26 [Note] InnoDB: The log sequence numbers 1799743 and 1799743 in ibdata files do not match the log sequence number 1799763 in the ib_logfiles!
140919 13:49:26 [Note] InnoDB: Database was not shutdown normally!
140919 13:49:26 [Note] InnoDB: Starting crash recovery.
140919 13:49:26 [Note] InnoDB: Reading tablespace information from the .ibd files...
140919 13:49:26 [Note] InnoDB: Restoring possible half-written data pages 
140919 13:49:26 [Note] InnoDB: from the doublewrite buffer...
140919 13:49:26 [Note] InnoDB: 128 rollback segment(s) are active.
140919 13:49:26 [Note] InnoDB: Waiting for purge to start
140919 13:49:27 [Note] InnoDB:  Percona XtraDB (http://www.percona.com) 5.6.19-67.0 started; log sequence number 1799763
140919 13:49:27 [Note] Plugin 'FEEDBACK' is disabled.
140919 13:49:27 [ERROR] Can't open and lock privilege tables: Table 'mysql.servers' doesn't exist
140919 13:49:27 [Warning] Can't open and lock time zone table: Table 'mysql.time_zone_leap_second' doesn't exist trying to live without them
140919 13:49:27 [ERROR] Native table 'performance_schema'.'cond_instances' has the wrong structure
140919 13:49:27 [ERROR] Native table 'performance_schema'.'events_waits_current' has the wrong structure
140919 13:49:27 [ERROR] Native table 'performance_schema'.'events_waits_history' has the wrong structure
140919 13:49:27 [ERROR] Native table 'performance_schema'.'events_waits_history_long' has the wrong structure
140919 13:49:27 [ERROR] Native table 'performance_schema'.'events_waits_summary_by_host_by_event_name' has the wrong structure
140919 13:49:27 [ERROR] Native table 'performance_schema'.'events_waits_summary_by_instance' has the wrong structure
140919 13:49:27 [ERROR] Native table 'performance_schema'.'events_waits_summary_by_thread_by_event_name' has the wrong structure
140919 13:49:27 [ERROR] Native table 'performance_schema'.'events_waits_summary_by_user_by_event_name' has the wrong structure
140919 13:49:27 [ERROR] Native table 'performance_schema'.'events_waits_summary_by_account_by_event_name' has the wrong structure
140919 13:49:27 [ERROR] Native table 'performance_schema'.'events_waits_summary_global_by_event_name' has the wrong structure
140919 13:49:27 [ERROR] Native table 'performance_schema'.'file_instances' has the wrong structure
140919 13:49:27 [ERROR] Native table 'performance_schema'.'file_summary_by_event_name' has the wrong structure
140919 13:49:27 [ERROR] Native table 'performance_schema'.'file_summary_by_instance' has the wrong structure
140919 13:49:27 [ERROR] Native table 'performance_schema'.'host_cache' has the wrong structure
140919 13:49:27 [ERROR] Native table 'performance_schema'.'mutex_instances' has the wrong structure
140919 13:49:27 [ERROR] Native table 'performance_schema'.'objects_summary_global_by_type' has the wrong structure
140919 13:49:27 [ERROR] Native table 'performance_schema'.'performance_timers' has the wrong structure
140919 13:49:27 [ERROR] Native table 'performance_schema'.'rwlock_instances' has the wrong structure
140919 13:49:27 [ERROR] Native table 'performance_schema'.'setup_actors' has the wrong structure
140919 13:49:27 [ERROR] Native table 'performance_schema'.'setup_consumers' has the wrong structure
140919 13:49:27 [ERROR] Native table 'performance_schema'.'setup_instruments' has the wrong structure
140919 13:49:27 [ERROR] Native table 'performance_schema'.'setup_objects' has the wrong structure
140919 13:49:27 [ERROR] Native table 'performance_schema'.'setup_timers' has the wrong structure
140919 13:49:27 [ERROR] Native table 'performance_schema'.'table_io_waits_summary_by_index_usage' has the wrong structure
140919 13:49:27 [ERROR] Native table 'performance_schema'.'table_io_waits_summary_by_table' has the wrong structure
140919 13:49:27 [ERROR] Native table 'performance_schema'.'table_lock_waits_summary_by_table' has the wrong structure
140919 13:49:27 [ERROR] Native table 'performance_schema'.'threads' has the wrong structure
140919 13:49:27 [ERROR] Native table 'performance_schema'.'events_stages_current' has the wrong structure
140919 13:49:27 [ERROR] Native table 'performance_schema'.'events_stages_history' has the wrong structure
140919 13:49:27 [ERROR] Native table 'performance_schema'.'events_stages_history_long' has the wrong structure
140919 13:49:27 [ERROR] Native table 'performance_schema'.'events_stages_summary_by_thread_by_event_name' has the wrong structure
140919 13:49:27 [ERROR] Native table 'performance_schema'.'events_stages_summary_by_account_by_event_name' has the wrong structure
140919 13:49:27 [ERROR] Native table 'performance_schema'.'events_stages_summary_by_user_by_event_name' has the wrong structure
140919 13:49:27 [ERROR] Native table 'performance_schema'.'events_stages_summary_by_host_by_event_name' has the wrong structure
140919 13:49:27 [ERROR] Native table 'performance_schema'.'events_stages_summary_global_by_event_name' has the wrong structure
140919 13:49:27 [ERROR] Native table 'performance_schema'.'events_statements_current' has the wrong structure
140919 13:49:27 [ERROR] Native table 'performance_schema'.'events_statements_history' has the wrong structure
140919 13:49:27 [ERROR] Native table 'performance_schema'.'events_statements_history_long' has the wrong structure
140919 13:49:27 [ERROR] Native table 'performance_schema'.'events_statements_summary_by_thread_by_event_name' has the wrong structure
140919 13:49:27 [ERROR] Native table 'performance_schema'.'events_statements_summary_by_account_by_event_name' has the wrong structure
140919 13:49:27 [ERROR] Native table 'performance_schema'.'events_statements_summary_by_user_by_event_name' has the wrong structure
140919 13:49:27 [ERROR] Native table 'performance_schema'.'events_statements_summary_by_host_by_event_name' has the wrong structure
140919 13:49:27 [ERROR] Native table 'performance_schema'.'events_statements_summary_global_by_event_name' has the wrong structure
140919 13:49:27 [ERROR] Native table 'performance_schema'.'events_statements_summary_by_digest' has the wrong structure
140919 13:49:27 [ERROR] Native table 'performance_schema'.'users' has the wrong structure
140919 13:49:27 [ERROR] Native table 'performance_schema'.'accounts' has the wrong structure
140919 13:49:27 [ERROR] Native table 'performance_schema'.'hosts' has the wrong structure
140919 13:49:27 [ERROR] Native table 'performance_schema'.'socket_instances' has the wrong structure
140919 13:49:27 [ERROR] Native table 'performance_schema'.'socket_summary_by_instance' has the wrong structure
140919 13:49:27 [ERROR] Native table 'performance_schema'.'socket_summary_by_event_name' has the wrong structure
140919 13:49:27 [ERROR] Native table 'performance_schema'.'session_connect_attrs' has the wrong structure
140919 13:49:27 [ERROR] Native table 'performance_schema'.'session_account_connect_attrs' has the wrong structure
140919 13:49:27 [Warning] Failed to load slave replication state from table mysql.gtid_slave_pos: 1146: Table 'mysql.gtid_slave_pos' doesn't exist
140919 13:49:27 [Note] Reading of all Master_info entries succeded
140919 13:49:27 [Note] Added new Master_info '' to hash table
140919 13:49:27 [Note] /usr/bin/mysqld: ready for connections.
Version: '10.0.13-MariaDB'  socket: '/tmp/akonadi-user.9Cx3IT/mysql.socket'  port: 0  MariaDB Server
2014-09-19 13:49:27 7fa18b773700 InnoDB: Error: Table "mysql"."innodb_table_stats" not found.
140919 13:50:02 [Note] /usr/bin/mysqld: Normal shutdown

140919 13:50:02 [Note] InnoDB: FTS optimize thread exiting.
140919 13:50:02 [Note] InnoDB: Starting shutdown...
140919 13:50:04 [Note] InnoDB: Shutdown completed; log sequence number 1799783
140919 13:50:04 [Note] /usr/bin/mysqld: Shutdown complete

